{
    "id": "contact-",
    "name": "Contact ",
    "description": "",
    "url": "",
    "cssClass": "",
    "validate": "false",
    "success": "Message Send Successfully",
    "error": "Message Not sent",
    "recaptchaError": "",
    "notify": "",
    "fields": []
}